{
  "type": "service_account",
  "project_id": "websosanh-1538826415686",
  "private_key_id": "10872cc20b38e5bb99c3a05325a95e063700b8a0",
  "private_key": "-----BEGIN PRIVATE KEY-----\nMIIEvAIBADANBgkqhkiG9w0BAQEFAASCBKYwggSiAgEAAoIBAQC1m6R6d1WufAOD\n3EGziTU7yoJl00rRiSvu6A3sLMKQc8iTViAecW4cOO6/qqUwvvnAZiA+OROpm499\nj/Rucl+NmkaEJvan2UU1H4o+WABWXLufngEHs6PMjbWqH08tUol8o409A0Jx6lfm\n9R2wVVCipp2Z8GKTL30pFp3jiRkEFUR2gHeCsZWvCVcRg0Iygxkb+84cr3UPdCxw\nIPBsqf+GT1xFxVJ2FVlkzKs7IMKbjJpYesW+EtvM2UCzxe5TIRuths/H8zln1xSd\nBMl53amHrmQH1B/5Nx9ec7AI4WCDN+0L/C2uwXzOzgu1SBhW5J7s9xa7W7FR+Azz\nela+U1urAgMBAAECggEAP1hsPSld0hBAu6A6rJB56IKhDDpwmPjjQaBgptYQAYnZ\nVwcOCgBfu2liYal4mDGs9N7KdVm8UYdIvC/XvySWztIWsabTl0VyXe7D7i4M5BLR\ngQIAcvrGciWlzZLBL9pfyYFU1QjLhueKRK2P7v87MpiyVU0jXRqN6iSQ6xpZhvH5\nhDySsw6AfmW7Ua0SSAmNBgpndAgNUypCsVn5oxwFJm37REzjXfR18QbYmVMCx7jl\nSD/7UDGx+E1x6MyVvX6wCqRJ+qRQNVcrUZUTP3SKPCmBj0LpYv7XJwqlplZPVu6m\nRUj/8fIKge+ALe3xb/hrajMub6jylMouMwfHVvdN+QKBgQD/teCQKMSImFrfpCH4\nQ7hS8/Uwkn8WyxaZJkKe+rzrX20CfOFKwWu/X+usox/lPkPh5PFQwfqSVuqr7J9k\nNMT3KkQJvudVPOKO/9HK6+bJnxuzRoOo1ZKbjuHpryytrnoWIUCYDq9AI3GaQUgT\nRrd8MkoNBUN47aqEqX9zwJVTkwKBgQC10EkDOUdymJdYFS3dOt+R0rgtwl4twFA6\nWJfQ4Z8hwOI1YqS/yGtQmA513XrTFjskUSRv5JUycQRBEFc1km/QIDEwpiyWhkQt\ncsYID+EBu3poq7e5AZtXZFTfk3QBpsDtmdW5wNySmS9vCPLuCKKvhQ4GJXDAA0R9\nS4JIPLkWiQKBgBHJxjBhFaLm7lNmaJKLq3Ph0qmpVzvvrsfCmJnUmXXKMpwcsdNw\ndx1d/9gHlP1ugmxhb8QNam/pqfOBx2jCHv2OrCL9a7xLOvt1olN6a5iU/+lNu3Tw\nPn2hx+dorzP50jZd489wHhLZJFr1tZzZq4PxP6N+PT5ZUiZeYCZePEUPAoGAO7Tk\n5UwgLH/z45dA8o/s76R1m4FjED9BmYeSg6Q0cA85ujJkzB5zL4pf5VEQjtWUIn8L\nKju0y1XWAc/t88fdNEn+HW3U4rHBHfO9GNSuHbWFo24Q7Y6bhv2J6cowpIIwhVap\nm1C8nt/zddFIhecMFfvp+Ra+ijAIg+USKcrXNZECgYBNAr2+ToD1jxW3689+xfNd\n37qXySJ4vd4ACxESqHLF1OV6kXH2imGtqVEOjW2CIUjWMDgi35+30mqiJvGJjtbC\nyspU4BJuxxBX2EfyoDl5HPc5ya0puIQOJ4b7lkJ+5BlRLE96yCQn0G8VnBvoib8h\n1MIqrUSw7JhysTomi90KAA==\n-----END PRIVATE KEY-----\n",
  "client_email": "firebase-adminsdk-irf59@websosanh-1538826415686.iam.gserviceaccount.com",
  "client_id": "102977862209423274816",
  "auth_uri": "https://accounts.google.com/o/oauth2/auth",
  "token_uri": "https://oauth2.googleapis.com/token",
  "auth_provider_x509_cert_url": "https://www.googleapis.com/oauth2/v1/certs",
  "client_x509_cert_url": "https://www.googleapis.com/robot/v1/metadata/x509/firebase-adminsdk-irf59%40websosanh-1538826415686.iam.gserviceaccount.com"
}
