2020-04-02 10:35:48.9421 ERROR Something went wrong: NguyenHuuKhanhHoang_DE_API.Model.ErrorModel.ApiException+ValidationApiException: Validation Failed
   at NguyenHuuKhanhHoang_DE_API.Startup.<>c.<ConfigureServices>b__4_14(ActionContext context) in D:\API\asp.netcore-de\NguyenHuuKhanhHoang_DE_API\NguyenHuuKhanhHoang_DE_API\Startup.cs:line 157
   at Microsoft.AspNetCore.Mvc.Infrastructure.ModelStateInvalidFilter.OnActionExecuting(ActionExecutingContext context)
   at Microsoft.AspNetCore.Mvc.Infrastructure.ControllerActionInvoker.Next(State& next, Scope& scope, Object& state, Boolean& isCompleted)
   at Microsoft.AspNetCore.Mvc.Infrastructure.ControllerActionInvoker.InvokeNextActionFilterAsync()
--- End of stack trace from previous location where exception was thrown ---
   at Microsoft.AspNetCore.Mvc.Infrastructure.ControllerActionInvoker.Rethrow(ActionExecutedContextSealed context)
   at Microsoft.AspNetCore.Mvc.Infrastructure.ControllerActionInvoker.Next(State& next, Scope& scope, Object& state, Boolean& isCompleted)
   at Microsoft.AspNetCore.Mvc.Infrastructure.ControllerActionInvoker.InvokeInnerFilterAsync()
--- End of stack trace from previous location where exception was thrown ---
   at Microsoft.AspNetCore.Mvc.Infrastructure.ResourceInvoker.<InvokeFilterPipelineAsync>g__Awaited|19_0(ResourceInvoker invoker, Task lastTask, State next, Scope scope, Object state, Boolean isCompleted)
   at Microsoft.AspNetCore.Mvc.Infrastructure.ResourceInvoker.<InvokeAsync>g__Awaited|17_0(ResourceInvoker invoker, Task task, IDisposable scope)
   at Microsoft.AspNetCore.Routing.EndpointMiddleware.<Invoke>g__AwaitRequestTask|6_0(Endpoint endpoint, Task requestTask, ILogger logger)
   at Microsoft.AspNetCore.Authorization.AuthorizationMiddleware.Invoke(HttpContext context)
   at Microsoft.AspNetCore.Authentication.AuthenticationMiddleware.Invoke(HttpContext context)
   at NguyenHuuKhanhHoang_DE_API.CustomMiddleware.CustomExceptionMiddleware.InvokeAsync(HttpContext httpContext) in D:\API\asp.netcore-de\NguyenHuuKhanhHoang_DE_API\NguyenHuuKhanhHoang_DE_API\CustomMiddleware\CustomExceptionMiddleware.cs:line 31
